gcc -o x1 phods_v2.c -O0
gcc -o x2 phods_merge.c -O0
gcc -o x3 phods_reuse.c -O0
gcc -o x4 phods_4.c -O0
gcc -o x5 phods_5.c -O0
gcc -o mq macros.c -O0
Block size =  1
[6482, 7077, 6566, 6528, 10418, 6547, 6843, 6526, 6388, 6641, 11747, 13254, 7496, 12085, 6543, 6544, 6772, 6537, 6619, 6558, 6643, 6772, 6464, 6613, 6459, 6874, 6835, 6436, 6726, 6881, 6648, 6631, 6780, 6607, 6726, 6598, 6513, 6754, 6690, 6846, 8648, 8980, 6788, 6914, 6512, 6602, 6532, 6497, 6495, 6682, 6490, 6593, 6720, 6478, 6489, 6674, 6741, 6375, 6512, 6695, 6463, 6588, 6617, 6582, 6443, 6565, 7060, 7006, 6630, 6558, 6722, 6546, 6712, 6707, 6621, 6600, 6601, 6655, 6562, 6609, 6812, 10322, 7914, 6703, 6684, 6755, 6637, 6778, 6893, 6644, 6550, 6794, 6578, 6529, 6499, 6559, 6690, 6622, 6820, 6869, 6773, 6455, 6835, 6734, 6715, 6543, 6636, 6492, 6386, 6470, 6678, 6503, 6702, 6711, 6645, 6551, 6653, 6606, 6455, 6580, 6650, 6481, 6545, 6608, 6659, 6499, 6602, 6722, 6603, 6645, 6628, 6524, 6551, 6572, 6407, 6479, 6763, 6806, 6539, 6623, 6734, 6618, 6352, 6798, 6581, 6476, 6504, 6542, 7023, 6665, 6619, 6561, 6873, 9996, 8550, 6650, 6901, 6525, 6450, 6658, 6500, 6677, 6723, 6717, 6581, 6493, 6596, 6510, 6389, 6559, 6628, 6400, 6626, 6745, 6424, 6618, 6712, 6629, 6371, 6591, 6555, 6503, 6567, 6459, 6443, 6637, 6827, 6764, 6761, 6720, 6715, 6459, 6468, 6690, 6524, 6631, 6637, 6813, 6629, 6502, 6834, 6641, 6459, 6590, 6633, 6505, 6310, 6438, 6870, 6525, 6933, 6568, 6784, 6490, 6679, 6644, 6856, 6612, 6773, 6524, 6439, 6612, 6636, 6534, 6815, 10186, 8533, 6565, 6706, 6591, 6555, 6571, 6488, 6724, 6692, 6515, 6742, 6675, 6502, 6540, 6623, 6618, 6505, 6514, 6524, 6592, 6791, 6739, 6831, 6596, 6455, 6616, 6526, 6550, 6583, 6482, 6508, 6644, 6763, 6385, 6892, 6504, 6591, 6534, 6534, 6442, 6443, 6527, 6903, 6567, 6666, 6657, 6645, 6651, 6479, 7393, 6517, 6534, 6458, 6508, 6405, 6765, 6953, 6496, 6986, 6710, 6581, 10879, 10139, 6334, 6428, 6500, 7245, 6663, 6531, 7190, 10067, 7657, 6645, 7897, 6758, 6652, 6579, 6730, 6630, 6993, 6740, 7071, 6554, 6638, 6507, 6513, 6546, 6655, 6662, 6559, 6511, 6607, 6711, 6742, 6501, 6717, 6593, 6575, 6383, 6734, 6692, 6829, 6492, 6652, 6864, 6579, 6568, 6643, 6559, 6639, 6774, 6707, 6784, 6654, 6411, 6499, 6748, 6673, 6666, 6510, 7053, 6554, 7032, 6709, 6709, 6530, 6464, 6677, 6795, 6715, 6681, 6748, 6400, 6450, 6531, 6566, 6843, 7253, 6668, 6557, 6748, 6606, 11476, 6572, 7757, 6681, 6760, 6581, 6480, 6366, 6499, 6839, 6599, 6817, 6699, 6448, 6450, 6532, 6627, 6360, 6893, 6665, 6475, 6599, 6801, 6747, 6474, 6484, 6670, 6515, 6455, 6712, 6597, 6444, 6639, 6860, 6822, 6478, 6591, 6778, 6558, 6680, 6523, 6433, 6687, 6650, 6560, 6654, 6745, 6477, 6730, 6790, 6759, 6597, 6639, 6770, 6624, 6551, 6600, 6762, 6635, 6455, 6768, 6618, 6607, 6442, 6620, 6679, 6461, 6546, 6694, 6556, 6730, 6525, 11624, 6577, 8049, 6608, 6928, 6578, 6923, 6592, 6544, 6870, 6501, 6666, 6695, 6419, 6558, 6658, 7031, 6465, 6515, 6565, 6403, 6757, 6747, 6479, 6687, 6687, 7611, 6351, 6562, 6666, 6475, 6518, 6568, 6551, 6498, 6571, 6702, 6600, 6600, 6654, 6481, 6554, 6745, 6541, 6465, 6651, 6847, 6488, 6658, 6621, 6521, 6909, 6647, 6565, 6462, 6520, 6644, 6602, 6662, 6609]
Block size =  2
[4255, 4290, 4208, 4386, 4104, 4238, 4223, 4259, 4246, 4106, 4714, 4107, 4225, 4290, 4401, 4297, 4243, 7660, 4863, 4303, 5091, 4448, 4325, 4538, 4329, 4306, 4246, 4466, 4238, 4693, 6628, 4206, 4330, 5103, 4378, 4311, 4468, 4283, 4259, 4337, 4391, 4192, 4244, 4125, 4344, 4275, 4693, 4287, 4370, 4249, 4415, 4211, 4319, 4347, 4325, 4288, 4389, 4373, 4259, 4314, 4278, 4388, 5782, 5110, 4293, 4532, 5002, 4457, 4263, 4349, 4278, 4358, 4420, 4301, 4242, 4242, 4242, 4173, 4280, 4305, 5231, 4344, 4416, 4241, 4804, 4272, 4394, 4323, 4273, 4275, 4260, 4200, 4735, 4193, 4250, 4284, 4759, 4267, 4372, 4116, 4604, 4104, 4354, 4302, 4402, 4254, 4702, 4138, 4536, 4219, 4216, 4199, 4362, 4198, 4201, 4269, 5169, 4393, 4358, 4528, 4215, 4451, 4513, 4222, 4446, 4229, 4558, 4138, 4358, 4239, 4337, 4379, 4283, 4286, 4452, 4197, 4430, 4100, 4331, 4219, 4327, 4272, 4263, 4230, 4305, 4280, 4543, 4309, 4395, 4292, 4491, 4393, 4279, 4221, 4300, 4313, 4216, 4209, 4346, 4241, 4276, 4138, 4737, 4391, 4388, 4237, 4209, 4342, 4510, 4235, 4336, 4297, 4343, 4233, 4296, 4310, 4645, 4378, 4303, 4393, 4649, 4356, 4329, 4160, 4446, 4109, 4359, 4357, 4160, 4340, 4356, 4210, 4408, 4238, 4301, 4292, 4341, 4238, 4494, 4297, 4219, 4335, 4217, 4444, 4135, 4288, 4242, 4324, 4326, 4498, 4158, 4377, 4103, 4417, 4320, 4269, 4360, 7857, 5429, 4299, 4341, 4203, 4626, 4370, 4298, 4247, 4320, 4304, 4302, 4512, 4391, 4345, 4388, 4102, 4323, 4244, 4125, 5012, 4589, 4534, 4287, 4365, 4276, 4415, 4163, 4333, 4646, 5329, 4367, 4469, 4242, 4341, 4349, 4159, 4270, 4233, 4313, 4176, 4353, 4509, 4463, 4191, 4963, 5144, 4404, 4292, 4569, 4109, 4478, 4117, 4351, 4132, 4463, 4984, 4378, 4372, 4261, 4201, 4254, 4482, 4211, 4362, 4188, 4336, 4148, 4348, 4320, 4128, 4247, 4111, 4314, 4283, 4336, 4270, 4306, 4243, 4438, 4424, 4148, 4407, 4340, 4370, 4242, 4536, 4275, 4399, 4235, 4248, 4328, 4441, 4294, 4458, 4325, 4500, 4303, 4485, 4138, 4915, 4293, 5247, 4275, 4463, 4277, 4292, 4382, 4312, 4321, 4248, 4280, 4420, 4312, 4318, 4211, 4380, 4150, 4274, 4283, 4304, 4245, 4180, 4178, 4244, 4142, 4281, 4252, 4220, 4382, 4236, 4129, 4257, 4287, 4217, 4236, 4390, 4258, 4277, 4182, 4639, 4270, 4437, 4395, 4315, 4357, 4559, 4252, 4297, 4374, 4328, 4135, 4345, 4352, 4271, 4348, 4284, 4256, 4460, 4212, 4315, 4148, 4467, 4556, 4266, 4131, 4395, 4307, 4353, 4287, 4359, 4304, 4468, 4183, 4373, 4188, 4382, 4123, 4280, 4485, 4610, 4223, 4290, 4422, 4474, 4248, 4397, 4258, 4265, 4147, 4252, 4237, 4278, 4178, 4149, 4271, 4260, 4579, 4240, 4206, 4515, 5669, 4278, 4424, 4268, 4460, 4441, 4230, 4384, 4133, 4340, 4557, 4649, 4360, 4271, 4307, 4459, 4244, 4377, 4214, 4542, 4110, 4516, 4231, 4453, 4473, 4109, 4344, 4135, 4506, 4285, 4244, 4302, 4431, 4152, 4421, 4266, 4372, 4244, 4310, 4193, 4324, 4232, 4477, 4224, 4370, 4424, 4402, 4253, 4335, 4237, 4446, 4238, 4348, 4215, 4269, 4205, 4364, 4103, 4474, 4154, 4271, 4262, 4639, 4189, 4433, 5532, 4700, 4940, 4952, 4541, 4322, 4326, 4129, 4433, 4237, 4476, 4248, 4854, 4537, 4382, 4157, 4596]
Block size =  4
[3750, 3742, 3543, 3722, 3724, 3610, 3725, 3521, 3695, 3524, 3750, 3561, 4108, 3577, 3729, 3854, 3816, 3640, 3690, 3722, 4211, 3615, 3901, 3510, 4006, 3597, 3798, 3755, 3693, 3646, 3647, 3690, 3770, 3665, 3849, 3623, 3718, 3927, 3547, 3654, 3527, 3529, 3617, 3792, 3690, 3802, 3661, 3621, 3555, 3659, 3706, 3545, 4172, 3777, 3647, 3696, 3639, 3847, 3528, 3673, 3546, 3602, 3723, 3593, 3783, 3507, 3919, 3551, 3764, 3520, 3705, 3970, 3636, 3620, 3673, 3929, 3697, 3788, 3686, 3991, 3540, 3931, 3608, 3600, 3531, 3620, 3665, 3627, 3670, 3694, 3674, 3699, 3640, 3597, 3633, 3786, 3732, 3763, 3678, 3703, 3813, 3756, 3690, 3513, 3601, 3669, 3919, 3637, 3725, 3764, 3676, 3657, 3799, 3674, 3791, 3674, 3519, 3703, 3509, 3831, 3508, 3732, 3913, 3775, 3975, 3805, 3541, 3713, 3543, 4064, 3547, 3699, 7087, 4893, 4631, 3812, 3596, 3910, 3544, 3788, 3602, 3564, 3533, 3646, 3841, 3877, 3899, 3603, 3660, 3597, 3600, 3677, 3665, 3597, 3620, 3720, 3695, 3720, 3623, 3648, 3525, 3773, 3593, 3550, 3930, 3689, 3757, 3699, 3707, 3856, 3592, 3821, 3678, 3600, 3524, 3708, 3510, 3783, 3693, 3768, 3569, 3621, 3532, 3816, 3750, 3603, 3654, 3640, 3829, 3690, 3765, 3645, 3664, 3592, 3640, 3822, 3627, 3767, 3746, 3736, 3875, 3686, 3883, 3693, 3633, 3698, 3699, 3883, 4097, 3582, 3917, 3683, 3765, 3628, 3723, 3656, 4019, 3723, 3650, 4167, 3655, 4037, 3727, 3721, 3623, 3853, 3656, 3680, 3596, 3642, 3746, 3583, 3732, 3828, 3761, 3682, 3571, 3546, 3720, 3827, 3853, 3938, 3707, 3720, 3657, 7184, 5161, 3633, 3829, 3772, 3714, 3718, 3624, 3626, 3601, 3731, 3670, 3815, 3713, 3785, 3563, 3690, 3681, 3586, 3641, 3521, 3846, 3528, 3879, 4243, 3741, 3673, 3713, 3727, 3620, 3622, 3633, 3714, 3665, 3689, 3546, 3880, 3695, 3750, 3654, 3762, 3732, 3762, 3733, 3740, 3836, 3631, 3735, 3973, 3800, 3820, 3626, 3623, 3697, 3645, 3644, 3683, 3547, 3875, 3669, 3880, 3669, 3620, 3739, 3841, 3601, 3673, 3593, 3530, 3890, 3634, 3760, 3586, 3634, 3678, 3523, 3757, 4553, 3735, 3685, 3707, 3649, 3811, 3569, 3634, 3565, 3632, 3530, 3838, 4671, 3551, 3664, 3555, 3775, 3633, 3729, 3605, 3723, 3566, 3657, 3543, 3746, 3776, 3508, 3903, 3510, 3674, 4015, 3630, 3599, 3621, 3541, 3694, 4958, 3817, 3742, 3720, 3969, 3887, 3658, 3858, 3536, 3647, 3509, 3696, 3968, 3650, 3671, 3641, 3867, 3953, 3616, 3639, 3735, 3619, 3612, 3790, 3635, 3777, 3637, 3687, 3667, 3919, 3674, 3603, 3717, 3544, 3763, 3568, 3701, 3574, 3614, 3710, 3672, 3756, 3626, 3819, 3650, 3885, 3511, 3902, 3561, 3721, 6910, 3634, 3748, 3805, 3659, 3733, 3748, 3714, 3628, 3694, 3644, 3641, 3683, 3662, 3731, 3648, 3665, 3635, 3801, 3661, 3631, 3702, 3603, 3702, 3691, 3759, 3621, 3739, 3603, 3750, 3753, 3772, 3835, 3806, 3777, 3675, 3755, 4851, 3686, 3868, 3783, 3667, 3559, 3722, 3700, 3786, 3518, 4000, 4079, 3637, 3801, 3809, 3766, 3631, 3660, 3967, 3573, 3726, 3771, 3615, 3602, 3510, 4177, 3756, 3656, 4665, 3727, 3674, 3868, 3618, 3740, 4313, 3688, 3891, 3780, 3772, 3814, 3668, 3732, 3663, 3734, 3756, 3532, 3596, 3573, 3665, 3882, 4041, 3686, 3717, 3903, 4098]
Block size =  8
[3503, 3605, 3406, 3433, 3565, 3409, 3540, 3318, 3525, 3466, 3461, 3357, 3468, 3589, 3496, 3548, 3416, 3459, 3447, 3485, 3648, 3401, 3546, 3424, 3644, 3321, 3472, 3350, 3509, 3515, 3426, 3442, 3437, 3450, 3421, 3412, 3502, 3360, 3553, 3555, 3522, 3418, 3496, 3528, 3397, 3509, 3464, 3378, 3440, 3557, 3522, 3371, 3583, 3357, 3605, 3352, 3689, 3519, 3421, 3730, 3437, 3575, 3434, 3470, 3460, 3319, 3536, 3318, 3518, 3574, 3384, 3429, 3357, 3614, 3578, 3545, 3533, 3336, 3494, 3716, 3458, 3445, 3511, 3429, 3721, 3330, 6915, 5163, 3667, 4616, 3855, 3687, 5054, 3999, 3472, 3614, 3640, 3506, 3568, 3477, 3440, 3452, 3450, 3566, 3410, 3549, 3470, 3572, 5527, 4656, 3337, 3600, 3577, 3442, 3571, 3676, 3954, 5119, 4047, 3809, 3595, 3770, 3587, 3735, 3851, 3946, 4066, 4011, 3717, 3840, 3726, 4067, 3704, 3988, 3787, 4076, 3682, 3736, 3787, 3668, 3881, 3640, 3819, 3908, 3637, 3720, 3671, 3798, 4011, 3994, 4006, 4198, 3918, 4141, 3709, 3750, 3574, 3698, 3859, 3615, 3904, 3728, 3734, 3892, 3743, 4110, 4338, 4313, 3861, 3611, 4056, 3732, 3948, 3755, 3894, 3806, 3942, 3781, 3986, 3746, 3942, 4037, 3915, 4115, 4005, 3967, 4448, 3841, 4052, 3668, 4379, 3721, 4013, 3613, 4002, 3974, 3842, 3918, 3942, 3856, 3952, 3921, 4251, 3759, 3795, 3839, 4241, 3761, 4018, 3801, 4115, 3634, 3866, 3678, 3900, 3688, 3894, 3778, 3838, 4363, 3472, 3393, 3443, 3414, 3475, 3548, 3554, 3426, 3436, 3386, 3601, 3546, 3524, 3468, 3439, 3460, 3432, 3723, 3342, 3591, 3420, 3667, 3343, 3346, 3397, 3455, 3587, 3322, 3829, 3403, 3458, 3498, 3423, 3467, 3509, 3483, 3366, 3606, 3734, 3686, 3447, 3438, 3641, 3318, 3469, 3320, 3498, 3380, 3519, 3441, 3561, 3612, 3484, 3343, 3540, 3379, 3598, 3592, 3610, 3835, 3499, 3531, 3487, 3421, 3455, 3572, 3464, 3501, 3449, 3408, 3499, 3524, 3514, 3493, 3434, 3497, 3504, 3580, 3466, 3359, 3454, 3509, 3413, 3739, 3454, 4274, 4704, 3626, 3352, 3360, 3336, 3505, 3468, 3495, 3539, 3506, 3319, 3525, 3687, 3595, 3449, 3574, 3334, 3568, 3348, 3534, 3344, 3669, 3523, 3579, 3636, 3446, 3323, 3470, 3322, 3538, 3390, 3638, 3477, 3588, 3518, 3448, 3430, 3421, 3778, 3428, 3668, 3426, 3485, 3573, 3453, 3445, 3464, 3586, 3459, 3491, 3534, 3576, 3496, 3408, 3545, 3438, 3574, 3379, 3633, 3412, 3455, 3475, 3372, 3522, 3519, 3427, 3487, 3668, 3442, 3513, 3621, 4381, 3494, 3372, 3812, 3450, 3405, 3396, 3444, 3450, 3457, 3487, 3438, 3476, 3557, 3372, 3593, 3489, 3496, 3476, 3543, 3570, 3666, 3543, 3485, 3764, 3436, 4173, 3421, 3430, 3663, 3446, 3638, 3400, 3445, 3534, 3491, 3488, 3538, 3680, 3379, 3486, 3357, 3585, 3440, 3509, 3480, 3358, 3526, 3357, 3386, 3363, 3415, 3475, 3321, 3521, 3360, 4000, 3766, 3475, 3395, 3498, 3635, 3488, 3588, 3505, 3369, 3498, 3357, 3661, 3317, 3592, 3381, 3567, 3336, 3459, 3491, 3565, 3684, 3555, 3369, 3459, 3334, 3511, 3519, 3494, 3402, 3510, 3449, 3440, 3338, 3376, 3548, 3432, 3695, 3430, 3320, 3437, 3614, 3534, 3359, 3500, 3510, 3752, 3478, 3550, 3382, 3431, 3527, 3899, 3612, 3474, 3368, 3477, 3339, 3669, 3355, 3582, 3720, 3524, 3385, 3374, 3481, 3457]
Block size =  16
[3436, 3332, 3535, 3290, 3433, 3367, 3542, 3446, 3378, 3403, 3453, 3294, 3356, 3249, 3794, 3283, 3469, 3372, 3581, 3350, 3388, 3340, 3330, 3402, 3460, 3658, 3506, 3359, 3603, 3356, 3544, 3352, 3416, 3618, 3272, 3299, 3268, 3377, 3444, 3475, 3467, 3342, 3359, 3269, 3481, 3302, 3542, 3304, 3410, 3481, 3266, 3648, 3291, 3713, 3433, 3476, 3398, 3434, 3427, 3272, 3385, 3389, 3385, 3468, 3396, 3422, 3414, 3311, 3276, 3395, 3606, 3345, 3554, 3400, 3814, 3410, 3443, 3448, 3265, 3464, 3358, 3510, 3353, 3459, 3467, 3356, 3415, 3452, 3386, 3393, 3418, 3400, 3263, 3588, 3505, 3415, 3268, 3350, 3616, 3442, 3483, 3411, 3277, 3349, 3385, 3481, 3300, 3477, 3309, 3474, 3297, 3349, 3395, 3361, 3454, 3270, 3365, 3371, 3276, 3460, 3302, 3537, 3341, 3296, 3264, 3416, 3409, 3445, 3439, 3505, 3250, 3476, 3245, 3591, 3668, 3467, 3264, 3473, 3329, 3462, 3419, 3400, 3275, 3388, 3259, 3680, 3266, 3395, 3243, 3635, 3262, 3471, 3248, 3266, 3896, 3404, 3446, 3416, 3304, 3472, 3339, 3603, 3364, 3446, 3362, 3385, 3358, 3409, 3406, 3551, 3529, 3534, 3288, 3339, 3617, 3771, 3364, 3587, 3247, 3505, 3401, 3395, 3349, 3351, 3851, 3413, 3444, 3410, 3262, 3470, 3481, 3500, 3394, 3370, 3593, 3404, 3569, 3314, 3398, 3426, 3358, 3347, 3409, 3496, 3321, 3582, 3248, 3533, 3262, 3414, 3358, 3475, 3329, 3443, 3553, 3457, 3423, 3524, 3291, 3482, 3378, 3379, 3304, 3482, 3458, 3429, 3779, 3517, 3326, 3316, 3329, 3517, 3325, 3432, 3695, 3271, 3321, 3268, 3467, 3335, 3581, 3406, 3395, 3328, 3302, 3446, 3316, 3483, 3426, 3419, 3326, 3459, 3358, 3266, 3396, 3647, 3464, 3351, 3379, 3428, 3305, 3690, 3251, 3531, 3305, 3471, 3410, 3415, 3495, 3471, 3526, 3664, 3336, 3361, 3582, 3538, 3426, 3584, 3400, 3369, 3344, 3473, 3264, 3316, 3437, 3416, 3488, 3439, 3309, 3397, 3290, 3625, 3300, 3460, 3640, 3323, 3372, 3353, 3255, 3436, 3458, 3343, 3273, 3380, 3273, 3521, 3305, 3512, 3260, 3617, 3297, 3518, 3390, 3524, 3611, 3415, 3435, 3490, 3258, 3570, 3245, 3531, 3312, 3408, 3276, 3437, 3429, 3293, 3347, 3296, 3314, 3296, 3272, 3633, 3530, 3452, 3294, 3428, 3299, 3325, 3381, 3283, 3579, 3287, 3387, 3427, 3395, 3464, 3434, 3330, 3345, 3385, 3544, 3387, 3450, 3515, 3348, 3337, 3439, 3377, 3392, 3427, 3357, 3439, 3372, 3382, 3419, 3440, 3386, 3456, 3356, 3379, 3521, 3424, 3438, 5944, 3348, 3567, 3320, 3669, 3373, 3441, 3361, 3367, 3323, 3415, 3463, 3400, 3402, 3473, 3290, 3449, 3402, 3520, 3598, 3486, 3304, 3404, 3246, 3525, 3446, 3408, 3402, 3487, 3319, 3252, 3245, 3427, 3319, 3468, 3299, 3418, 3588, 3520, 3735, 3506, 3608, 3343, 3321, 3432, 3262, 3468, 3262, 3457, 3302, 3535, 3746, 3398, 3446, 3471, 3364, 3478, 3311, 3414, 3484, 3526, 3344, 3416, 3595, 3376, 3373, 3259, 3429, 3428, 3443, 3395, 3376, 3313, 3320, 3470, 3521, 3596, 3264, 3483, 3552, 3633, 3451, 3287, 3701, 3299, 3489, 3400, 3354, 3559, 3271, 3540, 3346, 3397, 3630, 3381, 3357, 3648, 3617, 3411, 3587, 3370, 3475, 3389, 3482, 3442, 3279, 3466, 3262, 3525, 3311, 3368, 3533, 3471, 3486, 3435, 3332, 3391, 3299, 3677, 3590, 3528, 3246, 3408, 3270, 3501]
