--------------------------------------------------------------------------------
Command:            ./dijkstra_sll input.dat
Massif arguments:   (none)
ms_print arguments: massif.out.2581
--------------------------------------------------------------------------------


    KB
356.2^                                                                       :
     |                                                                   :@@@#
     |                                                                  @:@@@#
     |                                                              ::::@:@@@#
     |                                                           @:@::: @:@@@#
     |                                                       :@::@:@::: @:@@@#
     |                                                    @:::@: @:@::: @:@@@#
     |                                                ::::@: :@: @:@::: @:@@@#
     |                                              ::: ::@: :@: @:@::: @:@@@#
     |                                         :@@:@::: ::@: :@: @:@::: @:@@@#
     |                                      ::::@ :@::: ::@: :@: @:@::: @:@@@#
     |                                  ::::: ::@ :@::: ::@: :@: @:@::: @:@@@#
     |                               ::::: :: ::@ :@::: ::@: :@: @:@::: @:@@@#
     |                           @:@::: :: :: ::@ :@::: ::@: :@: @:@::: @:@@@#
     |                        @@:@:@::: :: :: ::@ :@::: ::@: :@: @:@::: @:@@@#
     |                     :::@ :@:@::: :: :: ::@ :@::: ::@: :@: @:@::: @:@@@#
     |                   :@:: @ :@:@::: :: :: ::@ :@::: ::@: :@: @:@::: @:@@@#
     |              ::::::@:: @ :@:@::: :: :: ::@ :@::: ::@: :@: @:@::: @:@@@#
     |           ::::: : :@:: @ :@:@::: :: :: ::@ :@::: ::@: :@: @:@::: @:@@@#
     |        ::@: ::: : :@:: @ :@:@::: :: :: ::@ :@::: ::@: :@: @:@::: @:@@@#
   0 +----------------------------------------------------------------------->Mi
     0                                                                   71.63

Number of snapshots: 83
 Detailed snapshots: [4, 12, 15, 17, 19, 29, 31, 37, 40, 42, 44, 48, 55, 56, 63, 64, 65, 75, 80 (peak)]

--------------------------------------------------------------------------------
  n        time(i)         total(B)   useful-heap(B) extra-heap(B)    stacks(B)
--------------------------------------------------------------------------------
  0              0                0                0             0            0
  1        173,526            4,672            4,648            24            0
  2      7,173,260            4,872            4,840            32            0
  3      8,520,588           18,912           12,452         6,460            0
  4     10,440,734           23,664           14,368         9,296            0
60.72% (14,368B) (heap allocation functions) malloc/new/new[], --alloc-fns, etc.
->38.03% (9,000B) 0x400F5A: enqueue (in /home/absolut/Desktop/embedded/ex2/DDTR/dijsktra/dijkstra_sll)
| ->37.98% (8,988B) 0x4012A6: dijkstra (in /home/absolut/Desktop/embedded/ex2/DDTR/dijsktra/dijkstra_sll)
| | ->37.98% (8,988B) 0x401478: main (in /home/absolut/Desktop/embedded/ex2/DDTR/dijsktra/dijkstra_sll)
| |   
| ->00.05% (12B) in 1+ places, all below ms_print's threshold (01.00%)
| 
->17.31% (4,096B) 0x50D018A: _IO_file_doallocate (filedoalloc.c:101)
| ->17.31% (4,096B) 0x50E0377: _IO_doallocbuf (genops.c:365)
|   ->17.31% (4,096B) 0x50DF252: _IO_file_underflow@@GLIBC_2.2.5 (fileops.c:495)
|     ->17.31% (4,096B) 0x50E03F0: _IO_default_uflow (genops.c:380)
|       ->17.31% (4,096B) 0x50BDBE8: _IO_vfscanf (vfscanf.c:630)
|         ->17.31% (4,096B) 0x50CE2E4: __isoc99_fscanf (isoc99_fscanf.c:34)
|           ->17.31% (4,096B) 0x4013DA: main (in /home/absolut/Desktop/embedded/ex2/DDTR/dijsktra/dijkstra_sll)
|             
->02.33% (552B) 0x50D0E48: fopen@@GLIBC_2.2.5 (iofopen.c:65)
| ->02.33% (552B) 0x4013A8: main (in /home/absolut/Desktop/embedded/ex2/DDTR/dijsktra/dijkstra_sll)
|   
->02.23% (528B) 0x4015CA: cdsl_queue_list_lock_based_pthread_enqueue (in /home/absolut/Desktop/embedded/ex2/DDTR/dijsktra/dijkstra_sll)
| ->02.23% (528B) 0x400FCC: enqueue (in /home/absolut/Desktop/embedded/ex2/DDTR/dijsktra/dijkstra_sll)
|   ->02.23% (528B) 0x4012A6: dijkstra (in /home/absolut/Desktop/embedded/ex2/DDTR/dijsktra/dijkstra_sll)
|   | ->02.23% (528B) 0x401478: main (in /home/absolut/Desktop/embedded/ex2/DDTR/dijsktra/dijkstra_sll)
|   |   
|   ->00.00% (0B) in 1+ places, all below ms_print's threshold (01.00%)
|   
->00.81% (192B) in 1+ places, all below ms_print's threshold (01.00%)

--------------------------------------------------------------------------------
  n        time(i)         total(B)   useful-heap(B) extra-heap(B)    stacks(B)
--------------------------------------------------------------------------------
  5     12,076,381           41,856           24,700        17,156            0
  6     13,632,959           44,232           25,388        18,844            0
  7     15,432,920           60,384           34,036        26,348            0
  8     16,667,900           60,696           33,660        27,036            0
  9     17,899,524           64,776           35,492        29,284            0
 10     18,753,022           68,256           37,148        31,108            0
 11     20,201,300           80,736           43,800        36,936            0
 12     21,351,284           82,632           44,392        38,240            0
53.72% (44,392B) (heap allocation functions) malloc/new/new[], --alloc-fns, etc.
->45.83% (37,872B) 0x400F5A: enqueue (in /home/absolut/Desktop/embedded/ex2/DDTR/dijsktra/dijkstra_sll)
| ->45.77% (37,824B) 0x4012A6: dijkstra (in /home/absolut/Desktop/embedded/ex2/DDTR/dijsktra/dijkstra_sll)
| | ->45.77% (37,824B) 0x401478: main (in /home/absolut/Desktop/embedded/ex2/DDTR/dijsktra/dijkstra_sll)
| |   
| ->00.06% (48B) in 1+ places, all below ms_print's threshold (01.00%)
| 
->06.20% (5,120B) 0x50D018A: _IO_file_doallocate (filedoalloc.c:101)
| ->06.20% (5,120B) 0x50E0377: _IO_doallocbuf (genops.c:365)
|   ->04.96% (4,096B) 0x50DF252: _IO_file_underflow@@GLIBC_2.2.5 (fileops.c:495)
|   | ->04.96% (4,096B) 0x50E03F0: _IO_default_uflow (genops.c:380)
|   |   ->04.96% (4,096B) 0x50BDBE8: _IO_vfscanf (vfscanf.c:630)
|   |     ->04.96% (4,096B) 0x50CE2E4: __isoc99_fscanf (isoc99_fscanf.c:34)
|   |       ->04.96% (4,096B) 0x4013DA: main (in /home/absolut/Desktop/embedded/ex2/DDTR/dijsktra/dijkstra_sll)
|   |         
|   ->01.24% (1,024B) 0x50DF496: _IO_file_overflow@@GLIBC_2.2.5 (fileops.c:759)
|     ->01.24% (1,024B) 0x50DD9EB: _IO_file_xsputn@@GLIBC_2.2.5 (fileops.c:1266)
|       ->01.24% (1,024B) 0x50AD532: vfprintf (vfprintf.c:1328)
|         ->01.24% (1,024B) 0x50B6F24: printf (printf.c:33)
|           ->01.24% (1,024B) 0x4012FB: dijkstra (in /home/absolut/Desktop/embedded/ex2/DDTR/dijsktra/dijkstra_sll)
|             ->01.24% (1,024B) 0x401478: main (in /home/absolut/Desktop/embedded/ex2/DDTR/dijsktra/dijkstra_sll)
|               
->01.69% (1,400B) in 4 places, all below massif's threshold (1.00%)
  
--------------------------------------------------------------------------------
  n        time(i)         total(B)   useful-heap(B) extra-heap(B)    stacks(B)
--------------------------------------------------------------------------------
 13     22,706,830           98,808           53,248        45,560            0
 14     23,926,907           98,568           52,556        46,012            0
 15     25,751,772          116,904           62,472        54,432            0
53.44% (62,472B) (heap allocation functions) malloc/new/new[], --alloc-fns, etc.
->44.63% (52,176B) 0x400F5A: enqueue (in /home/absolut/Desktop/embedded/ex2/DDTR/dijsktra/dijkstra_sll)
| ->44.57% (52,104B) 0x4012A6: dijkstra (in /home/absolut/Desktop/embedded/ex2/DDTR/dijsktra/dijkstra_sll)
| | ->44.57% (52,104B) 0x401478: main (in /home/absolut/Desktop/embedded/ex2/DDTR/dijsktra/dijkstra_sll)
| |   
| ->00.06% (72B) in 1+ places, all below ms_print's threshold (01.00%)
| 
->04.38% (5,120B) 0x50D018A: _IO_file_doallocate (filedoalloc.c:101)
| ->04.38% (5,120B) 0x50E0377: _IO_doallocbuf (genops.c:365)
|   ->03.50% (4,096B) 0x50DF252: _IO_file_underflow@@GLIBC_2.2.5 (fileops.c:495)
|   | ->03.50% (4,096B) 0x50E03F0: _IO_default_uflow (genops.c:380)
|   |   ->03.50% (4,096B) 0x50BDBE8: _IO_vfscanf (vfscanf.c:630)
|   |     ->03.50% (4,096B) 0x50CE2E4: __isoc99_fscanf (isoc99_fscanf.c:34)
|   |       ->03.50% (4,096B) 0x4013DA: main (in /home/absolut/Desktop/embedded/ex2/DDTR/dijsktra/dijkstra_sll)
|   |         
|   ->00.88% (1,024B) in 1+ places, all below ms_print's threshold (01.00%)
|   
->03.79% (4,432B) 0x4015CA: cdsl_queue_list_lock_based_pthread_enqueue (in /home/absolut/Desktop/embedded/ex2/DDTR/dijsktra/dijkstra_sll)
| ->03.79% (4,432B) 0x400FCC: enqueue (in /home/absolut/Desktop/embedded/ex2/DDTR/dijsktra/dijkstra_sll)
|   ->03.79% (4,432B) 0x4012A6: dijkstra (in /home/absolut/Desktop/embedded/ex2/DDTR/dijsktra/dijkstra_sll)
|   | ->03.79% (4,432B) 0x401478: main (in /home/absolut/Desktop/embedded/ex2/DDTR/dijsktra/dijkstra_sll)
|   |   
|   ->00.00% (0B) in 1+ places, all below ms_print's threshold (01.00%)
|   
->00.64% (744B) in 1+ places, all below ms_print's threshold (01.00%)

--------------------------------------------------------------------------------
  n        time(i)         total(B)   useful-heap(B) extra-heap(B)    stacks(B)
--------------------------------------------------------------------------------
 16     27,156,067          115,560           61,048        54,512            0
 17     28,814,992          132,360           70,140        62,220            0
52.99% (70,140B) (heap allocation functions) malloc/new/new[], --alloc-fns, etc.
->45.39% (60,084B) 0x400F5A: enqueue (in /home/absolut/Desktop/embedded/ex2/DDTR/dijsktra/dijkstra_sll)
| ->45.33% (60,000B) 0x4012A6: dijkstra (in /home/absolut/Desktop/embedded/ex2/DDTR/dijsktra/dijkstra_sll)
| | ->45.33% (60,000B) 0x401478: main (in /home/absolut/Desktop/embedded/ex2/DDTR/dijsktra/dijkstra_sll)
| |   
| ->00.06% (84B) in 1+ places, all below ms_print's threshold (01.00%)
| 
->03.87% (5,120B) 0x50D018A: _IO_file_doallocate (filedoalloc.c:101)
| ->03.87% (5,120B) 0x50E0377: _IO_doallocbuf (genops.c:365)
|   ->03.09% (4,096B) 0x50DF252: _IO_file_underflow@@GLIBC_2.2.5 (fileops.c:495)
|   | ->03.09% (4,096B) 0x50E03F0: _IO_default_uflow (genops.c:380)
|   |   ->03.09% (4,096B) 0x50BDBE8: _IO_vfscanf (vfscanf.c:630)
|   |     ->03.09% (4,096B) 0x50CE2E4: __isoc99_fscanf (isoc99_fscanf.c:34)
|   |       ->03.09% (4,096B) 0x4013DA: main (in /home/absolut/Desktop/embedded/ex2/DDTR/dijsktra/dijkstra_sll)
|   |         
|   ->00.77% (1,024B) in 1+ places, all below ms_print's threshold (01.00%)
|   
->03.17% (4,192B) 0x4015CA: cdsl_queue_list_lock_based_pthread_enqueue (in /home/absolut/Desktop/embedded/ex2/DDTR/dijsktra/dijkstra_sll)
| ->03.17% (4,192B) 0x400FCC: enqueue (in /home/absolut/Desktop/embedded/ex2/DDTR/dijsktra/dijkstra_sll)
|   ->03.17% (4,192B) 0x4012A6: dijkstra (in /home/absolut/Desktop/embedded/ex2/DDTR/dijsktra/dijkstra_sll)
|   | ->03.17% (4,192B) 0x401478: main (in /home/absolut/Desktop/embedded/ex2/DDTR/dijsktra/dijkstra_sll)
|   |   
|   ->00.00% (0B) in 1+ places, all below ms_print's threshold (01.00%)
|   
->00.56% (744B) in 1+ places, all below ms_print's threshold (01.00%)

--------------------------------------------------------------------------------
  n        time(i)         total(B)   useful-heap(B) extra-heap(B)    stacks(B)
--------------------------------------------------------------------------------
 18     29,685,425          132,072           69,576        62,496            0
 19     30,908,154          134,376           70,372        64,004            0
52.37% (70,372B) (heap allocation functions) malloc/new/new[], --alloc-fns, etc.
->47.20% (63,420B) 0x400F5A: enqueue (in /home/absolut/Desktop/embedded/ex2/DDTR/dijsktra/dijkstra_sll)
| ->47.13% (63,336B) 0x4012A6: dijkstra (in /home/absolut/Desktop/embedded/ex2/DDTR/dijsktra/dijkstra_sll)
| | ->47.13% (63,336B) 0x401478: main (in /home/absolut/Desktop/embedded/ex2/DDTR/dijsktra/dijkstra_sll)
| |   
| ->00.06% (84B) in 1+ places, all below ms_print's threshold (01.00%)
| 
->03.81% (5,120B) 0x50D018A: _IO_file_doallocate (filedoalloc.c:101)
| ->03.81% (5,120B) 0x50E0377: _IO_doallocbuf (genops.c:365)
|   ->03.05% (4,096B) 0x50DF252: _IO_file_underflow@@GLIBC_2.2.5 (fileops.c:495)
|   | ->03.05% (4,096B) 0x50E03F0: _IO_default_uflow (genops.c:380)
|   |   ->03.05% (4,096B) 0x50BDBE8: _IO_vfscanf (vfscanf.c:630)
|   |     ->03.05% (4,096B) 0x50CE2E4: __isoc99_fscanf (isoc99_fscanf.c:34)
|   |       ->03.05% (4,096B) 0x4013DA: main (in /home/absolut/Desktop/embedded/ex2/DDTR/dijsktra/dijkstra_sll)
|   |         
|   ->00.76% (1,024B) in 1+ places, all below ms_print's threshold (01.00%)
|   
->01.36% (1,832B) in 4 places, all below massif's threshold (1.00%)
  
--------------------------------------------------------------------------------
  n        time(i)         total(B)   useful-heap(B) extra-heap(B)    stacks(B)
--------------------------------------------------------------------------------
 20     31,789,437          136,512           71,224        65,288            0
 21     33,010,479          149,472           78,264        71,208            0
 22     34,241,871          150,984           78,592        72,392            0
 23     35,803,826          166,608           87,036        79,572            0
 24     37,091,450          167,280           86,848        80,432            0
 25     38,949,986          182,232           94,764        87,468            0
 26     40,518,019          183,600           94,856        88,744            0
 27     42,289,992          199,584          103,416        96,168            0
 28     43,512,263          200,808          103,580        97,228            0
 29     44,683,704          216,432          112,200       104,232            0
51.84% (112,200B) (heap allocation functions) malloc/new/new[], --alloc-fns, etc.
->47.15% (102,048B) 0x400F5A: enqueue (in /home/absolut/Desktop/embedded/ex2/DDTR/dijsktra/dijkstra_sll)
| ->47.08% (101,904B) 0x4012A6: dijkstra (in /home/absolut/Desktop/embedded/ex2/DDTR/dijsktra/dijkstra_sll)
| | ->47.08% (101,904B) 0x401478: main (in /home/absolut/Desktop/embedded/ex2/DDTR/dijsktra/dijkstra_sll)
| |   
| ->00.07% (144B) in 1+ places, all below ms_print's threshold (01.00%)
| 
->02.37% (5,120B) 0x50D018A: _IO_file_doallocate (filedoalloc.c:101)
| ->02.37% (5,120B) 0x50E0377: _IO_doallocbuf (genops.c:365)
|   ->01.89% (4,096B) 0x50DF252: _IO_file_underflow@@GLIBC_2.2.5 (fileops.c:495)
|   | ->01.89% (4,096B) 0x50E03F0: _IO_default_uflow (genops.c:380)
|   |   ->01.89% (4,096B) 0x50BDBE8: _IO_vfscanf (vfscanf.c:630)
|   |     ->01.89% (4,096B) 0x50CE2E4: __isoc99_fscanf (isoc99_fscanf.c:34)
|   |       ->01.89% (4,096B) 0x4013DA: main (in /home/absolut/Desktop/embedded/ex2/DDTR/dijsktra/dijkstra_sll)
|   |         
|   ->00.47% (1,024B) in 1+ places, all below ms_print's threshold (01.00%)
|   
->01.98% (4,288B) 0x4015CA: cdsl_queue_list_lock_based_pthread_enqueue (in /home/absolut/Desktop/embedded/ex2/DDTR/dijsktra/dijkstra_sll)
| ->01.98% (4,288B) 0x400FCC: enqueue (in /home/absolut/Desktop/embedded/ex2/DDTR/dijsktra/dijkstra_sll)
|   ->01.98% (4,288B) 0x4012A6: dijkstra (in /home/absolut/Desktop/embedded/ex2/DDTR/dijsktra/dijkstra_sll)
|   | ->01.98% (4,288B) 0x401478: main (in /home/absolut/Desktop/embedded/ex2/DDTR/dijsktra/dijkstra_sll)
|   |   
|   ->00.00% (0B) in 1+ places, all below ms_print's threshold (01.00%)
|   
->00.34% (744B) in 1+ places, all below ms_print's threshold (01.00%)

--------------------------------------------------------------------------------
  n        time(i)         total(B)   useful-heap(B) extra-heap(B)    stacks(B)
--------------------------------------------------------------------------------
 30     46,090,275          216,552          111,632       104,920            0
 31     47,264,212          218,616          112,312       106,304            0
51.37% (112,312B) (heap allocation functions) malloc/new/new[], --alloc-fns, etc.
->48.52% (106,080B) 0x400F5A: enqueue (in /home/absolut/Desktop/embedded/ex2/DDTR/dijsktra/dijkstra_sll)
| ->48.46% (105,936B) 0x4012A6: dijkstra (in /home/absolut/Desktop/embedded/ex2/DDTR/dijsktra/dijkstra_sll)
| | ->48.46% (105,936B) 0x401478: main (in /home/absolut/Desktop/embedded/ex2/DDTR/dijsktra/dijkstra_sll)
| |   
| ->00.07% (144B) in 1+ places, all below ms_print's threshold (01.00%)
| 
->02.34% (5,120B) 0x50D018A: _IO_file_doallocate (filedoalloc.c:101)
| ->02.34% (5,120B) 0x50E0377: _IO_doallocbuf (genops.c:365)
|   ->01.87% (4,096B) 0x50DF252: _IO_file_underflow@@GLIBC_2.2.5 (fileops.c:495)
|   | ->01.87% (4,096B) 0x50E03F0: _IO_default_uflow (genops.c:380)
|   |   ->01.87% (4,096B) 0x50BDBE8: _IO_vfscanf (vfscanf.c:630)
|   |     ->01.87% (4,096B) 0x50CE2E4: __isoc99_fscanf (isoc99_fscanf.c:34)
|   |       ->01.87% (4,096B) 0x4013DA: main (in /home/absolut/Desktop/embedded/ex2/DDTR/dijsktra/dijkstra_sll)
|   |         
|   ->00.47% (1,024B) in 1+ places, all below ms_print's threshold (01.00%)
|   
->00.51% (1,112B) in 1+ places, all below ms_print's threshold (01.00%)

--------------------------------------------------------------------------------
  n        time(i)         total(B)   useful-heap(B) extra-heap(B)    stacks(B)
--------------------------------------------------------------------------------
 32     48,656,983          235,272          121,436       113,836            0
 33     50,061,201          236,616          121,588       115,028            0
 34     51,077,172          239,184          122,632       116,552            0
 35     52,297,665          254,952          131,316       123,636            0
 36     53,697,313          255,024          130,724       124,300            0
 37     54,808,326          261,960          134,292       127,668            0
51.26% (134,292B) (heap allocation functions) malloc/new/new[], --alloc-fns, etc.
->48.42% (126,828B) 0x400F5A: enqueue (in /home/absolut/Desktop/embedded/ex2/DDTR/dijsktra/dijkstra_sll)
| ->48.35% (126,648B) 0x4012A6: dijkstra (in /home/absolut/Desktop/embedded/ex2/DDTR/dijsktra/dijkstra_sll)
| | ->48.35% (126,648B) 0x401478: main (in /home/absolut/Desktop/embedded/ex2/DDTR/dijsktra/dijkstra_sll)
| |   
| ->00.07% (180B) in 1+ places, all below ms_print's threshold (01.00%)
| 
->01.95% (5,120B) 0x50D018A: _IO_file_doallocate (filedoalloc.c:101)
| ->01.95% (5,120B) 0x50E0377: _IO_doallocbuf (genops.c:365)
|   ->01.56% (4,096B) 0x50DF252: _IO_file_underflow@@GLIBC_2.2.5 (fileops.c:495)
|   | ->01.56% (4,096B) 0x50E03F0: _IO_default_uflow (genops.c:380)
|   |   ->01.56% (4,096B) 0x50BDBE8: _IO_vfscanf (vfscanf.c:630)
|   |     ->01.56% (4,096B) 0x50CE2E4: __isoc99_fscanf (isoc99_fscanf.c:34)
|   |       ->01.56% (4,096B) 0x4013DA: main (in /home/absolut/Desktop/embedded/ex2/DDTR/dijsktra/dijkstra_sll)
|   |         
|   ->00.39% (1,024B) in 1+ places, all below ms_print's threshold (01.00%)
|   
->00.89% (2,344B) in 1+ places, all below ms_print's threshold (01.00%)

--------------------------------------------------------------------------------
  n        time(i)         total(B)   useful-heap(B) extra-heap(B)    stacks(B)
--------------------------------------------------------------------------------
 38     56,010,294          271,392          139,268       132,124            0
 39     57,685,407          273,936          140,000       133,936            0
 40     58,624,535          288,024          147,832       140,192            0
51.33% (147,832B) (heap allocation functions) malloc/new/new[], --alloc-fns, etc.
->48.03% (138,336B) 0x400F5A: enqueue (in /home/absolut/Desktop/embedded/ex2/DDTR/dijsktra/dijkstra_sll)
| ->47.96% (138,144B) 0x4012A6: dijkstra (in /home/absolut/Desktop/embedded/ex2/DDTR/dijsktra/dijkstra_sll)
| | ->47.96% (138,144B) 0x401478: main (in /home/absolut/Desktop/embedded/ex2/DDTR/dijsktra/dijkstra_sll)
| |   
| ->00.07% (192B) in 1+ places, all below ms_print's threshold (01.00%)
| 
->01.78% (5,120B) 0x50D018A: _IO_file_doallocate (filedoalloc.c:101)
| ->01.78% (5,120B) 0x50E0377: _IO_doallocbuf (genops.c:365)
|   ->01.42% (4,096B) 0x50DF252: _IO_file_underflow@@GLIBC_2.2.5 (fileops.c:495)
|   | ->01.42% (4,096B) 0x50E03F0: _IO_default_uflow (genops.c:380)
|   |   ->01.42% (4,096B) 0x50BDBE8: _IO_vfscanf (vfscanf.c:630)
|   |     ->01.42% (4,096B) 0x50CE2E4: __isoc99_fscanf (isoc99_fscanf.c:34)
|   |       ->01.42% (4,096B) 0x4013DA: main (in /home/absolut/Desktop/embedded/ex2/DDTR/dijsktra/dijkstra_sll)
|   |         
|   ->00.36% (1,024B) in 1+ places, all below ms_print's threshold (01.00%)
|   
->01.26% (3,632B) 0x4015CA: cdsl_queue_list_lock_based_pthread_enqueue (in /home/absolut/Desktop/embedded/ex2/DDTR/dijsktra/dijkstra_sll)
| ->01.26% (3,632B) 0x400FCC: enqueue (in /home/absolut/Desktop/embedded/ex2/DDTR/dijsktra/dijkstra_sll)
|   ->01.26% (3,632B) 0x4012A6: dijkstra (in /home/absolut/Desktop/embedded/ex2/DDTR/dijsktra/dijkstra_sll)
|   | ->01.26% (3,632B) 0x401478: main (in /home/absolut/Desktop/embedded/ex2/DDTR/dijsktra/dijkstra_sll)
|   |   
|   ->00.00% (0B) in 1+ places, all below ms_print's threshold (01.00%)
|   
->00.26% (744B) in 1+ places, all below ms_print's threshold (01.00%)

--------------------------------------------------------------------------------
  n        time(i)         total(B)   useful-heap(B) extra-heap(B)    stacks(B)
--------------------------------------------------------------------------------
 41     59,890,665          291,096          149,056       142,040            0
 42     61,553,429          306,240          157,176       149,064            0
51.32% (157,176B) (heap allocation functions) malloc/new/new[], --alloc-fns, etc.
->47.92% (146,736B) 0x400F5A: enqueue (in /home/absolut/Desktop/embedded/ex2/DDTR/dijsktra/dijkstra_sll)
| ->47.85% (146,532B) 0x4012A6: dijkstra (in /home/absolut/Desktop/embedded/ex2/DDTR/dijsktra/dijkstra_sll)
| | ->47.85% (146,532B) 0x401478: main (in /home/absolut/Desktop/embedded/ex2/DDTR/dijsktra/dijkstra_sll)
| |   
| ->00.07% (204B) in 1+ places, all below ms_print's threshold (01.00%)
| 
->01.67% (5,120B) 0x50D018A: _IO_file_doallocate (filedoalloc.c:101)
| ->01.67% (5,120B) 0x50E0377: _IO_doallocbuf (genops.c:365)
|   ->01.34% (4,096B) 0x50DF252: _IO_file_underflow@@GLIBC_2.2.5 (fileops.c:495)
|   | ->01.34% (4,096B) 0x50E03F0: _IO_default_uflow (genops.c:380)
|   |   ->01.34% (4,096B) 0x50BDBE8: _IO_vfscanf (vfscanf.c:630)
|   |     ->01.34% (4,096B) 0x50CE2E4: __isoc99_fscanf (isoc99_fscanf.c:34)
|   |       ->01.34% (4,096B) 0x4013DA: main (in /home/absolut/Desktop/embedded/ex2/DDTR/dijsktra/dijkstra_sll)
|   |         
|   ->00.33% (1,024B) in 1+ places, all below ms_print's threshold (01.00%)
|   
->01.49% (4,576B) 0x4015CA: cdsl_queue_list_lock_based_pthread_enqueue (in /home/absolut/Desktop/embedded/ex2/DDTR/dijsktra/dijkstra_sll)
| ->01.49% (4,576B) 0x400FCC: enqueue (in /home/absolut/Desktop/embedded/ex2/DDTR/dijsktra/dijkstra_sll)
|   ->01.49% (4,576B) 0x4012A6: dijkstra (in /home/absolut/Desktop/embedded/ex2/DDTR/dijsktra/dijkstra_sll)
|   | ->01.49% (4,576B) 0x401478: main (in /home/absolut/Desktop/embedded/ex2/DDTR/dijsktra/dijkstra_sll)
|   |   
|   ->00.00% (0B) in 1+ places, all below ms_print's threshold (01.00%)
|   
->00.24% (744B) in 1+ places, all below ms_print's threshold (01.00%)

--------------------------------------------------------------------------------
  n        time(i)         total(B)   useful-heap(B) extra-heap(B)    stacks(B)
--------------------------------------------------------------------------------
 43     63,138,726          307,488          157,188       150,300            0
 44     64,000,792          309,312          157,868       151,444            0
51.04% (157,868B) (heap allocation functions) malloc/new/new[], --alloc-fns, etc.
->48.75% (150,804B) 0x400F5A: enqueue (in /home/absolut/Desktop/embedded/ex2/DDTR/dijsktra/dijkstra_sll)
| ->48.69% (150,600B) 0x4012A6: dijkstra (in /home/absolut/Desktop/embedded/ex2/DDTR/dijsktra/dijkstra_sll)
| | ->48.69% (150,600B) 0x401478: main (in /home/absolut/Desktop/embedded/ex2/DDTR/dijsktra/dijkstra_sll)
| |   
| ->00.07% (204B) in 1+ places, all below ms_print's threshold (01.00%)
| 
->01.66% (5,120B) 0x50D018A: _IO_file_doallocate (filedoalloc.c:101)
| ->01.66% (5,120B) 0x50E0377: _IO_doallocbuf (genops.c:365)
|   ->01.32% (4,096B) 0x50DF252: _IO_file_underflow@@GLIBC_2.2.5 (fileops.c:495)
|   | ->01.32% (4,096B) 0x50E03F0: _IO_default_uflow (genops.c:380)
|   |   ->01.32% (4,096B) 0x50BDBE8: _IO_vfscanf (vfscanf.c:630)
|   |     ->01.32% (4,096B) 0x50CE2E4: __isoc99_fscanf (isoc99_fscanf.c:34)
|   |       ->01.32% (4,096B) 0x4013DA: main (in /home/absolut/Desktop/embedded/ex2/DDTR/dijsktra/dijkstra_sll)
|   |         
|   ->00.33% (1,024B) in 1+ places, all below ms_print's threshold (01.00%)
|   
->00.63% (1,944B) in 1+ places, all below ms_print's threshold (01.00%)

--------------------------------------------------------------------------------
  n        time(i)         total(B)   useful-heap(B) extra-heap(B)    stacks(B)
--------------------------------------------------------------------------------
 45     65,299,952          313,176          159,540       153,636            0
 46     66,241,508          327,816          167,692       160,124            0
 47     67,290,006          327,792          167,204       160,588            0
 48     69,219,291          344,376          176,048       168,328            0
51.12% (176,048B) (heap allocation functions) malloc/new/new[], --alloc-fns, etc.
->48.32% (166,392B) 0x400F5A: enqueue (in /home/absolut/Desktop/embedded/ex2/DDTR/dijsktra/dijkstra_sll)
| ->48.25% (166,164B) 0x4012A6: dijkstra (in /home/absolut/Desktop/embedded/ex2/DDTR/dijsktra/dijkstra_sll)
| | ->48.25% (166,164B) 0x401478: main (in /home/absolut/Desktop/embedded/ex2/DDTR/dijsktra/dijkstra_sll)
| |   
| ->00.07% (228B) in 1+ places, all below ms_print's threshold (01.00%)
| 
->01.49% (5,120B) 0x50D018A: _IO_file_doallocate (filedoalloc.c:101)
| ->01.49% (5,120B) 0x50E0377: _IO_doallocbuf (genops.c:365)
|   ->01.19% (4,096B) 0x50DF252: _IO_file_underflow@@GLIBC_2.2.5 (fileops.c:495)
|   | ->01.19% (4,096B) 0x50E03F0: _IO_default_uflow (genops.c:380)
|   |   ->01.19% (4,096B) 0x50BDBE8: _IO_vfscanf (vfscanf.c:630)
|   |     ->01.19% (4,096B) 0x50CE2E4: __isoc99_fscanf (isoc99_fscanf.c:34)
|   |       ->01.19% (4,096B) 0x4013DA: main (in /home/absolut/Desktop/embedded/ex2/DDTR/dijsktra/dijkstra_sll)
|   |         
|   ->00.30% (1,024B) in 1+ places, all below ms_print's threshold (01.00%)
|   
->01.10% (3,792B) 0x4015CA: cdsl_queue_list_lock_based_pthread_enqueue (in /home/absolut/Desktop/embedded/ex2/DDTR/dijsktra/dijkstra_sll)
| ->01.10% (3,792B) 0x400FCC: enqueue (in /home/absolut/Desktop/embedded/ex2/DDTR/dijsktra/dijkstra_sll)
|   ->01.10% (3,792B) 0x4012A6: dijkstra (in /home/absolut/Desktop/embedded/ex2/DDTR/dijsktra/dijkstra_sll)
|   | ->01.10% (3,792B) 0x401478: main (in /home/absolut/Desktop/embedded/ex2/DDTR/dijsktra/dijkstra_sll)
|   |   
|   ->00.00% (0B) in 1+ places, all below ms_print's threshold (01.00%)
|   
->00.22% (744B) in 1+ places, all below ms_print's threshold (01.00%)

--------------------------------------------------------------------------------
  n        time(i)         total(B)   useful-heap(B) extra-heap(B)    stacks(B)
--------------------------------------------------------------------------------
 49     69,919,664          344,640          175,884       168,756            0
 50     70,094,908          344,256          175,580       168,676            0
 51     70,269,790          346,728          176,948       169,780            0
 52     70,443,539          346,992          177,024       169,968            0
 53     70,619,651          346,800          176,832       169,968            0
 54     70,797,258          345,960          176,260       169,700            0
 55     70,973,201          347,688          177,192       170,496            0
50.96% (177,192B) (heap allocation functions) malloc/new/new[], --alloc-fns, etc.
->48.77% (169,584B) 0x400F5A: enqueue (in /home/absolut/Desktop/embedded/ex2/DDTR/dijsktra/dijkstra_sll)
| ->48.71% (169,356B) 0x4012A6: dijkstra (in /home/absolut/Desktop/embedded/ex2/DDTR/dijsktra/dijkstra_sll)
| | ->48.71% (169,356B) 0x401478: main (in /home/absolut/Desktop/embedded/ex2/DDTR/dijsktra/dijkstra_sll)
| |   
| ->00.07% (228B) in 1+ places, all below ms_print's threshold (01.00%)
| 
->01.47% (5,120B) 0x50D018A: _IO_file_doallocate (filedoalloc.c:101)
| ->01.47% (5,120B) 0x50E0377: _IO_doallocbuf (genops.c:365)
|   ->01.18% (4,096B) 0x50DF252: _IO_file_underflow@@GLIBC_2.2.5 (fileops.c:495)
|   | ->01.18% (4,096B) 0x50E03F0: _IO_default_uflow (genops.c:380)
|   |   ->01.18% (4,096B) 0x50BDBE8: _IO_vfscanf (vfscanf.c:630)
|   |     ->01.18% (4,096B) 0x50CE2E4: __isoc99_fscanf (isoc99_fscanf.c:34)
|   |       ->01.18% (4,096B) 0x4013DA: main (in /home/absolut/Desktop/embedded/ex2/DDTR/dijsktra/dijkstra_sll)
|   |         
|   ->00.29% (1,024B) in 1+ places, all below ms_print's threshold (01.00%)
|   
->00.72% (2,488B) in 1+ places, all below ms_print's threshold (01.00%)

--------------------------------------------------------------------------------
  n        time(i)         total(B)   useful-heap(B) extra-heap(B)    stacks(B)
--------------------------------------------------------------------------------
 56     70,991,767          347,904          177,312       170,592            0
50.97% (177,312B) (heap allocation functions) malloc/new/new[], --alloc-fns, etc.
->48.77% (169,656B) 0x400F5A: enqueue (in /home/absolut/Desktop/embedded/ex2/DDTR/dijsktra/dijkstra_sll)
| ->48.70% (169,428B) 0x4012A6: dijkstra (in /home/absolut/Desktop/embedded/ex2/DDTR/dijsktra/dijkstra_sll)
| | ->48.70% (169,428B) 0x401478: main (in /home/absolut/Desktop/embedded/ex2/DDTR/dijsktra/dijkstra_sll)
| |   
| ->00.07% (228B) in 1+ places, all below ms_print's threshold (01.00%)
| 
->01.47% (5,120B) 0x50D018A: _IO_file_doallocate (filedoalloc.c:101)
| ->01.47% (5,120B) 0x50E0377: _IO_doallocbuf (genops.c:365)
|   ->01.18% (4,096B) 0x50DF252: _IO_file_underflow@@GLIBC_2.2.5 (fileops.c:495)
|   | ->01.18% (4,096B) 0x50E03F0: _IO_default_uflow (genops.c:380)
|   |   ->01.18% (4,096B) 0x50BDBE8: _IO_vfscanf (vfscanf.c:630)
|   |     ->01.18% (4,096B) 0x50CE2E4: __isoc99_fscanf (isoc99_fscanf.c:34)
|   |       ->01.18% (4,096B) 0x4013DA: main (in /home/absolut/Desktop/embedded/ex2/DDTR/dijsktra/dijkstra_sll)
|   |         
|   ->00.29% (1,024B) in 1+ places, all below ms_print's threshold (01.00%)
|   
->00.73% (2,536B) in 1+ places, all below ms_print's threshold (01.00%)

--------------------------------------------------------------------------------
  n        time(i)         total(B)   useful-heap(B) extra-heap(B)    stacks(B)
--------------------------------------------------------------------------------
 57     71,167,228          347,544          177,020       170,524            0
 58     71,344,425          347,592          176,968       170,624            0
 59     71,521,622          347,640          176,916       170,724            0
 60     71,698,385          347,592          176,808       170,784            0
 61     71,871,917          347,808          176,856       170,952            0
 62     72,047,185          348,408          177,128       171,280            0
 63     72,111,323          353,232          179,928       173,304            0
50.94% (179,928B) (heap allocation functions) malloc/new/new[], --alloc-fns, etc.
->48.82% (172,464B) 0x400F5A: enqueue (in /home/absolut/Desktop/embedded/ex2/DDTR/dijsktra/dijkstra_sll)
| ->48.76% (172,224B) 0x4012A6: dijkstra (in /home/absolut/Desktop/embedded/ex2/DDTR/dijsktra/dijkstra_sll)
| | ->48.76% (172,224B) 0x401478: main (in /home/absolut/Desktop/embedded/ex2/DDTR/dijsktra/dijkstra_sll)
| |   
| ->00.07% (240B) in 1+ places, all below ms_print's threshold (01.00%)
| 
->01.45% (5,120B) 0x50D018A: _IO_file_doallocate (filedoalloc.c:101)
| ->01.45% (5,120B) 0x50E0377: _IO_doallocbuf (genops.c:365)
|   ->01.16% (4,096B) 0x50DF252: _IO_file_underflow@@GLIBC_2.2.5 (fileops.c:495)
|   | ->01.16% (4,096B) 0x50E03F0: _IO_default_uflow (genops.c:380)
|   |   ->01.16% (4,096B) 0x50BDBE8: _IO_vfscanf (vfscanf.c:630)
|   |     ->01.16% (4,096B) 0x50CE2E4: __isoc99_fscanf (isoc99_fscanf.c:34)
|   |       ->01.16% (4,096B) 0x4013DA: main (in /home/absolut/Desktop/embedded/ex2/DDTR/dijsktra/dijkstra_sll)
|   |         
|   ->00.29% (1,024B) in 1+ places, all below ms_print's threshold (01.00%)
|   
->00.66% (2,344B) in 1+ places, all below ms_print's threshold (01.00%)

--------------------------------------------------------------------------------
  n        time(i)         total(B)   useful-heap(B) extra-heap(B)    stacks(B)
--------------------------------------------------------------------------------
 64     72,150,914          357,096          182,172       174,924            0
51.01% (182,172B) (heap allocation functions) malloc/new/new[], --alloc-fns, etc.
->48.58% (173,460B) 0x400F5A: enqueue (in /home/absolut/Desktop/embedded/ex2/DDTR/dijsktra/dijkstra_sll)
| ->48.51% (173,220B) 0x4012A6: dijkstra (in /home/absolut/Desktop/embedded/ex2/DDTR/dijsktra/dijkstra_sll)
| | ->48.51% (173,220B) 0x401478: main (in /home/absolut/Desktop/embedded/ex2/DDTR/dijsktra/dijkstra_sll)
| |   
| ->00.07% (240B) in 1+ places, all below ms_print's threshold (01.00%)
| 
->01.43% (5,120B) 0x50D018A: _IO_file_doallocate (filedoalloc.c:101)
| ->01.43% (5,120B) 0x50E0377: _IO_doallocbuf (genops.c:365)
|   ->01.15% (4,096B) 0x50DF252: _IO_file_underflow@@GLIBC_2.2.5 (fileops.c:495)
|   | ->01.15% (4,096B) 0x50E03F0: _IO_default_uflow (genops.c:380)
|   |   ->01.15% (4,096B) 0x50BDBE8: _IO_vfscanf (vfscanf.c:630)
|   |     ->01.15% (4,096B) 0x50CE2E4: __isoc99_fscanf (isoc99_fscanf.c:34)
|   |       ->01.15% (4,096B) 0x4013DA: main (in /home/absolut/Desktop/embedded/ex2/DDTR/dijsktra/dijkstra_sll)
|   |         
|   ->00.29% (1,024B) in 1+ places, all below ms_print's threshold (01.00%)
|   
->01.01% (3,592B) in 4 places, all below massif's threshold (1.00%)
  
--------------------------------------------------------------------------------
  n        time(i)         total(B)   useful-heap(B) extra-heap(B)    stacks(B)
--------------------------------------------------------------------------------
 65     72,251,797          360,816          184,304       176,512            0
51.08% (184,304B) (heap allocation functions) malloc/new/new[], --alloc-fns, etc.
->48.36% (174,504B) 0x400F5A: enqueue (in /home/absolut/Desktop/embedded/ex2/DDTR/dijsktra/dijkstra_sll)
| ->48.30% (174,264B) 0x4012A6: dijkstra (in /home/absolut/Desktop/embedded/ex2/DDTR/dijsktra/dijkstra_sll)
| | ->48.30% (174,264B) 0x401478: main (in /home/absolut/Desktop/embedded/ex2/DDTR/dijsktra/dijkstra_sll)
| |   
| ->00.07% (240B) in 1+ places, all below ms_print's threshold (01.00%)
| 
->01.42% (5,120B) 0x50D018A: _IO_file_doallocate (filedoalloc.c:101)
| ->01.42% (5,120B) 0x50E0377: _IO_doallocbuf (genops.c:365)
|   ->01.14% (4,096B) 0x50DF252: _IO_file_underflow@@GLIBC_2.2.5 (fileops.c:495)
|   | ->01.14% (4,096B) 0x50E03F0: _IO_default_uflow (genops.c:380)
|   |   ->01.14% (4,096B) 0x50BDBE8: _IO_vfscanf (vfscanf.c:630)
|   |     ->01.14% (4,096B) 0x50CE2E4: __isoc99_fscanf (isoc99_fscanf.c:34)
|   |       ->01.14% (4,096B) 0x4013DA: main (in /home/absolut/Desktop/embedded/ex2/DDTR/dijsktra/dijkstra_sll)
|   |         
|   ->00.28% (1,024B) in 1+ places, all below ms_print's threshold (01.00%)
|   
->01.09% (3,936B) 0x4015CA: cdsl_queue_list_lock_based_pthread_enqueue (in /home/absolut/Desktop/embedded/ex2/DDTR/dijsktra/dijkstra_sll)
| ->01.09% (3,936B) 0x400FCC: enqueue (in /home/absolut/Desktop/embedded/ex2/DDTR/dijsktra/dijkstra_sll)
|   ->01.09% (3,936B) 0x4012A6: dijkstra (in /home/absolut/Desktop/embedded/ex2/DDTR/dijsktra/dijkstra_sll)
|   | ->01.09% (3,936B) 0x401478: main (in /home/absolut/Desktop/embedded/ex2/DDTR/dijsktra/dijkstra_sll)
|   |   
|   ->00.00% (0B) in 1+ places, all below ms_print's threshold (01.00%)
|   
->00.21% (744B) in 1+ places, all below ms_print's threshold (01.00%)

--------------------------------------------------------------------------------
  n        time(i)         total(B)   useful-heap(B) extra-heap(B)    stacks(B)
--------------------------------------------------------------------------------
 66     72,425,550          362,472          185,192       177,280            0
 67     72,602,574          363,024          185,436       177,588            0
 68     72,779,747          362,088          184,808       177,280            0
 69     72,954,557          361,608          184,448       177,160            0
 70     73,130,886          361,464          184,284       177,180            0
 71     73,307,432          361,368          184,148       177,220            0
 72     73,480,964          361,584          184,196       177,388            0
 73     73,655,455          362,376          184,580       177,796            0
 74     73,829,898          362,232          184,416       177,816            0
 75     74,004,164          362,808          184,676       178,132            0
50.90% (184,676B) (heap allocation functions) malloc/new/new[], --alloc-fns, etc.
->48.89% (177,372B) 0x400F5A: enqueue (in /home/absolut/Desktop/embedded/ex2/DDTR/dijsktra/dijkstra_sll)
| ->48.82% (177,132B) 0x4012A6: dijkstra (in /home/absolut/Desktop/embedded/ex2/DDTR/dijsktra/dijkstra_sll)
| | ->48.82% (177,132B) 0x401478: main (in /home/absolut/Desktop/embedded/ex2/DDTR/dijsktra/dijkstra_sll)
| |   
| ->00.07% (240B) in 1+ places, all below ms_print's threshold (01.00%)
| 
->01.41% (5,120B) 0x50D018A: _IO_file_doallocate (filedoalloc.c:101)
| ->01.41% (5,120B) 0x50E0377: _IO_doallocbuf (genops.c:365)
|   ->01.13% (4,096B) 0x50DF252: _IO_file_underflow@@GLIBC_2.2.5 (fileops.c:495)
|   | ->01.13% (4,096B) 0x50E03F0: _IO_default_uflow (genops.c:380)
|   |   ->01.13% (4,096B) 0x50BDBE8: _IO_vfscanf (vfscanf.c:630)
|   |     ->01.13% (4,096B) 0x50CE2E4: __isoc99_fscanf (isoc99_fscanf.c:34)
|   |       ->01.13% (4,096B) 0x4013DA: main (in /home/absolut/Desktop/embedded/ex2/DDTR/dijsktra/dijkstra_sll)
|   |         
|   ->00.28% (1,024B) in 1+ places, all below ms_print's threshold (01.00%)
|   
->00.60% (2,184B) in 1+ places, all below ms_print's threshold (01.00%)

--------------------------------------------------------------------------------
  n        time(i)         total(B)   useful-heap(B) extra-heap(B)    stacks(B)
--------------------------------------------------------------------------------
 76     74,181,144          362,808          184,596       178,212            0
 77     74,356,195          363,360          184,840       178,520            0
 78     74,533,392          363,408          184,788       178,620            0
 79     74,708,660          364,008          185,060       178,948            0
 80     74,759,608          364,536          185,348       179,188            0
50.84% (185,348B) (heap allocation functions) malloc/new/new[], --alloc-fns, etc.
->49.05% (178,812B) 0x400F5A: enqueue (in /home/absolut/Desktop/embedded/ex2/DDTR/dijsktra/dijkstra_sll)
| ->48.99% (178,572B) 0x4012A6: dijkstra (in /home/absolut/Desktop/embedded/ex2/DDTR/dijsktra/dijkstra_sll)
| | ->48.99% (178,572B) 0x401478: main (in /home/absolut/Desktop/embedded/ex2/DDTR/dijsktra/dijkstra_sll)
| |   
| ->00.07% (240B) in 1+ places, all below ms_print's threshold (01.00%)
| 
->01.40% (5,120B) 0x50D018A: _IO_file_doallocate (filedoalloc.c:101)
| ->01.40% (5,120B) 0x50E0377: _IO_doallocbuf (genops.c:365)
|   ->01.12% (4,096B) 0x50DF252: _IO_file_underflow@@GLIBC_2.2.5 (fileops.c:495)
|   | ->01.12% (4,096B) 0x50E03F0: _IO_default_uflow (genops.c:380)
|   |   ->01.12% (4,096B) 0x50BDBE8: _IO_vfscanf (vfscanf.c:630)
|   |     ->01.12% (4,096B) 0x50CE2E4: __isoc99_fscanf (isoc99_fscanf.c:34)
|   |       ->01.12% (4,096B) 0x4013DA: main (in /home/absolut/Desktop/embedded/ex2/DDTR/dijsktra/dijkstra_sll)
|   |         
|   ->00.28% (1,024B) in 1+ places, all below ms_print's threshold (01.00%)
|   
->00.39% (1,416B) in 1+ places, all below ms_print's threshold (01.00%)

--------------------------------------------------------------------------------
  n        time(i)         total(B)   useful-heap(B) extra-heap(B)    stacks(B)
--------------------------------------------------------------------------------
 81     74,933,140          364,728          185,380       179,348            0
 82     75,107,766          364,680          185,272       179,408            0
