digraph CFG {
	_JOIN_61457 [label="_JOIN_61457None...",shape=box];
	57985 [label="57985  int i;...",shape=box];
	57985 -> ForLoop61368;
	_JOIN_61368 [label="_JOIN_61368None...",shape=box];
	_JOIN_61368 -> ForLoop61457;
	ForLoop61368 [label="ForLoop61368  for (i=0; i<=N-32; i=i+32) {...",shape=box];
	ForLoop61368 -> 60095;
	ForLoop61368 -> _JOIN_61368;
	60095 [label="60095  y[i]=y[i]+a1*x1[i]+a2*x2[i]+a3*x3[i];...",shape=box];
	ForLoop61457 [label="ForLoop61457  for (i=N-((N-(0))%32); i<=N-1; i=i+1) ...",shape=box];
	ForLoop61457 -> 61456;
	ForLoop61457 -> _JOIN_61457;
	_TOP_ [label="_TOP_None...",shape=box];
	_TOP_ -> 57985;
	61456 [label="61456  y[i]=y[i]+a1*x1[i]+a2*x2[i]+a3*x3[i];...",shape=box];
	61456 -> _JOIN_61457;

}
